Our_World_in_Data Graphics
…
Filtering

df3 = df3 |> 
  filter(Code %in% c("ARG", "BOL", "BRA", "CHL",
                     "COL", "ECU", "PRY", "PER",
                     "URY", "USA", "MEX")) |> 
  filter(Year >= 2000 & Year <= 2020)

as_tibble(df3)

# A tibble: 162 × 4
   Entity    Code   Year government_expenditure_on_secondary_education_as_a_pe…¹
   <chr>     <chr> <int>                                                   <dbl>
 1 Argentina ARG    2000                                                    1.64
 2 Argentina ARG    2001                                                    1.77
 3 Argentina ARG    2002                                                    1.58
 4 Argentina ARG    2003                                                    1.32
 5 Argentina ARG    2004                                                    1.32
 6 Argentina ARG    2005                                                    1.61
 7 Argentina ARG    2006                                                    1.65
 8 Argentina ARG    2007                                                    1.75
 9 Argentina ARG    2008                                                    1.90
10 Argentina ARG    2009                                                    2.26
# ℹ 152 more rows
# ℹ abbreviated name:
#   ¹​government_expenditure_on_secondary_education_as_a_percentage_of_gdp__pct
…
Filtering

df4 = df4 |> 
  filter(Entity %in% c("Europe and Central Asia (WB)",
                       "Latin America and Caribbean (WB)",
                       "North America (WB)")) |> 
  filter(Year >= 2000 & Year <= 2022)

as_tibble(df4)

# A tibble: 68 × 4
   Entity                       Code   Year combined_expenditure
   <chr>                        <chr> <int>                <dbl>
 1 Europe and Central Asia (WB) ""     2000                 4.39
 2 Europe and Central Asia (WB) ""     2001                 4.65
 3 Europe and Central Asia (WB) ""     2002                 4.53
 4 Europe and Central Asia (WB) ""     2003                 5.04
 5 Europe and Central Asia (WB) ""     2004                 4.83
 6 Europe and Central Asia (WB) ""     2005                 4.93
 7 Europe and Central Asia (WB) ""     2006                 4.91
 8 Europe and Central Asia (WB) ""     2007                 4.63
 9 Europe and Central Asia (WB) ""     2008                 4.84
10 Europe and Central Asia (WB) ""     2009                 4.97
# ℹ 58 more rows
…
